#TBName,pedType,pedVal,pedErr,nEntries
ECAL0:0-0-0,Odd,3.539173e+02,1.400106e+00,54864
ECAL0:0-0-1,Odd,3.313856e+02,2.492483e+00,49538
ECAL0:0-0-0,Even,3.506989e+02,1.231876e+00,54864
ECAL0:0-0-1,Even,3.254748e+02,2.358672e+00,49538
ECAL0:0-1-0,Odd,2.932559e+02,1.660238e+00,60695
ECAL0:0-1-1,Odd,3.227124e+02,1.164766e+00,47196
ECAL0:0-1-0,Even,2.900925e+02,1.971317e+00,60695
ECAL0:0-1-1,Even,3.126341e+02,1.476643e+00,47196
ECAL0:0-2-0,Odd,2.738143e+02,3.411407e+00,58580
ECAL0:0-2-1,Odd,3.419903e+02,2.811756e+00,48410
ECAL0:0-2-0,Even,2.691452e+02,2.798242e+00,58580
ECAL0:0-2-1,Even,3.348358e+02,2.609891e+00,48410
ECAL0:0-3-0,Odd,3.166044e+02,7.588580e+00,54176
ECAL0:0-3-1,Odd,3.333901e+02,8.749811e+00,52489
ECAL0:0-3-0,Even,3.090862e+02,9.827876e-01,54176
ECAL0:0-3-1,Even,3.194452e+02,9.548282e+00,52489
ECAL0:0-4-0,Odd,3.480819e+02,1.420982e+00,50153
ECAL0:0-4-1,Odd,3.393071e+02,2.269977e+00,47339
ECAL0:0-4-0,Even,3.475634e+02,1.377111e+00,50153
ECAL0:0-4-1,Even,3.308565e+02,2.417510e+00,47339
ECAL0:0-5-0,Odd,3.448565e+02,1.528811e+00,50701
ECAL0:0-5-1,Odd,3.301092e+02,3.458575e+00,51469
ECAL0:0-5-0,Even,3.446892e+02,1.961631e+02,50701
ECAL0:0-5-1,Even,3.344391e+02,1.947650e+02,51469
ECAL0:1-0-0,Odd,3.311543e+02,8.627503e-01,60732
ECAL0:1-0-1,Odd,3.308129e+02,7.687559e-01,43489
ECAL0:1-0-0,Even,3.276073e+02,1.327975e+00,60732
ECAL0:1-0-1,Even,3.162323e+02,6.951424e-01,43489
ECAL0:1-1-0,Odd,3.933499e+02,1.848930e+02,61307
ECAL0:1-1-1,Odd,3.387647e+02,1.592683e+00,60602
ECAL0:1-1-0,Even,3.420053e+02,2.211760e+00,61307
ECAL0:1-1-1,Even,3.325357e+02,1.089248e+00,60602
ECAL0:1-2-0,Odd,3.797253e+02,9.590570e-01,61280
ECAL0:1-2-1,Odd,3.511347e+02,2.639902e+00,61492
ECAL0:1-2-0,Even,3.382985e+02,4.517873e+00,61280
ECAL0:1-2-1,Even,3.528485e+02,2.323468e+00,61492
ECAL0:1-3-0,Odd,3.943723e+02,1.010705e+00,61360
ECAL0:1-3-1,Odd,3.303499e+02,1.076164e+00,61390
ECAL0:1-3-0,Even,3.391581e+02,3.569333e+00,61360
ECAL0:1-3-1,Even,3.218004e+02,9.796740e-01,61390
ECAL0:1-4-0,Odd,3.791797e+02,3.935123e+00,61267
ECAL0:1-4-1,Odd,3.305685e+02,1.045515e+00,61552
ECAL0:1-4-0,Even,3.323275e+02,1.926306e+00,61267
ECAL0:1-4-1,Even,3.370865e+02,2.386608e+00,61552
ECAL0:1-5-0,Odd,3.261878e+02,1.096686e+00,53210
ECAL0:1-5-1,Odd,3.308922e+02,7.958995e-01,53991
ECAL0:1-5-0,Even,3.290047e+02,9.752954e-01,53210
ECAL0:1-5-1,Even,3.264415e+02,7.951147e-01,53991
ECAL0:2-0-0,Odd,3.297069e+02,1.919409e+02,61154
ECAL0:2-0-1,Odd,3.388620e+02,7.800480e-01,50466
ECAL0:2-0-0,Even,3.285073e+02,1.105849e+00,61154
ECAL0:2-0-1,Even,3.239435e+02,1.004260e+00,50466
ECAL0:2-1-0,Odd,3.772567e+02,1.654764e+00,61435
ECAL0:2-1-1,Odd,3.342330e+02,1.008942e+00,61472
ECAL0:2-1-0,Even,3.270787e+02,1.512566e+00,61435
ECAL0:2-1-1,Even,3.287063e+02,6.872909e-01,61472
ECAL0:2-2-0,Odd,3.678275e+02,1.890157e+02,61330
ECAL0:2-2-1,Odd,3.512366e+02,6.316616e+00,61626
ECAL0:2-2-0,Even,3.237773e+02,5.671203e+00,61330
ECAL0:2-2-1,Even,3.578860e+02,6.302768e+00,61626
ECAL0:2-3-0,Odd,3.752421e+02,1.875982e+02,61405
ECAL0:2-3-1,Odd,3.568321e+02,4.481052e+00,61643
ECAL0:2-3-0,Even,3.301343e+02,4.736331e+00,61405
ECAL0:2-3-1,Even,3.442913e+02,5.142755e+00,61643
ECAL0:2-4-0,Odd,3.906262e+02,1.526475e+00,61421
ECAL0:2-4-1,Odd,3.260867e+02,1.482350e+00,61538
ECAL0:2-4-0,Even,3.488476e+02,1.519624e+00,61421
ECAL0:2-4-1,Even,3.287519e+02,5.366242e+00,61538
ECAL0:2-5-0,Odd,3.400008e+02,1.037647e+00,59445
ECAL0:2-5-1,Odd,3.387734e+02,7.684044e-01,60792
ECAL0:2-5-0,Even,3.485133e+02,7.585699e-01,59445
ECAL0:2-5-1,Even,3.264926e+02,1.062481e+00,60792
ECAL0:3-0-0,Odd,3.463823e+02,1.090180e+00,60614
ECAL0:3-0-1,Odd,3.308124e+02,7.696450e-01,47810
ECAL0:3-0-0,Even,3.532989e+02,9.276447e-01,60614
ECAL0:3-0-1,Even,3.288109e+02,7.691635e-01,47810
ECAL0:3-1-0,Odd,3.378421e+02,2.470722e+00,61540
ECAL0:3-1-1,Odd,3.474570e+02,1.478501e+00,61568
ECAL0:3-1-0,Even,3.509522e+02,1.917078e+02,61540
ECAL0:3-1-1,Even,3.533492e+02,1.397966e+00,61568
ECAL0:3-2-0,Odd,3.267892e+02,1.950469e+02,61597
ECAL0:3-2-1,Odd,3.386062e+02,2.950639e+00,61619
ECAL0:3-2-0,Even,3.360938e+02,3.678306e+00,61597
ECAL0:3-2-1,Even,3.476435e+02,4.877993e+00,61619
ECAL0:3-3-0,Odd,3.413413e+02,5.090046e+00,61700
ECAL0:3-3-1,Odd,3.488515e+02,5.094256e+00,61686
ECAL0:3-3-0,Even,3.543320e+02,5.092633e+00,61700
ECAL0:3-3-1,Even,3.436982e+02,4.615748e+00,61686
ECAL0:3-4-0,Odd,3.131460e+02,3.871037e+00,61582
ECAL0:3-4-1,Odd,3.268599e+02,1.044879e+00,61608
ECAL0:3-4-0,Even,3.383868e+02,3.859644e+00,61582
ECAL0:3-4-1,Even,3.288094e+02,1.962556e+02,61608
ECAL0:3-5-0,Odd,3.224436e+02,1.150519e+00,60134
ECAL0:3-5-1,Odd,3.264660e+02,7.232941e-01,60962
ECAL0:3-5-0,Even,3.331510e+02,9.045347e-01,60134
ECAL0:3-5-1,Even,3.254238e+02,1.217549e+00,60962
ECAL0:4-0-0,Odd,3.299020e+02,1.919449e+02,57911
ECAL0:4-0-1,Odd,3.351041e+02,8.475054e-01,48890
ECAL0:4-0-0,Even,3.334144e+02,9.709951e-01,57911
ECAL0:4-0-1,Even,3.419479e+02,1.005181e+00,48890
ECAL0:4-1-0,Odd,3.216997e+02,1.373505e+00,61535
ECAL0:4-1-1,Odd,3.284839e+02,1.046042e+00,61501
ECAL0:4-1-0,Even,3.324643e+02,1.507638e+00,61535
ECAL0:4-1-1,Even,3.300794e+02,1.325432e+00,61501
ECAL0:4-2-0,Odd,3.220236e+02,1.301131e+00,61521
ECAL0:4-2-1,Odd,3.235549e+02,3.871542e+00,61236
ECAL0:4-2-0,Even,3.469956e+02,1.156680e+00,61521
ECAL0:4-2-1,Even,3.320729e+02,5.774228e-01,61236
ECAL0:4-3-0,Odd,3.275461e+02,3.717925e+00,61537
ECAL0:4-3-1,Odd,3.307273e+02,4.911735e-01,61335
ECAL0:4-3-0,Even,3.352470e+02,8.427661e-01,61537
ECAL0:4-3-1,Even,3.374156e+02,5.191723e+00,61335
ECAL0:4-4-0,Odd,3.472281e+02,8.573006e-01,61290
ECAL0:4-4-1,Odd,3.241016e+02,2.438807e+00,61516
ECAL0:4-4-0,Even,3.554322e+02,1.781259e+00,61290
ECAL0:4-4-1,Even,3.254418e+02,3.199268e+00,61516
ECAL0:4-5-0,Odd,3.299890e+02,1.080416e+00,52700
ECAL0:4-5-1,Odd,3.399101e+02,9.827990e-01,59931
ECAL0:4-5-0,Even,3.473261e+02,8.737636e-01,52700
ECAL0:4-5-1,Even,3.467394e+02,7.825304e-01,59931
ECAL0:5-0-0,Odd,3.352567e+02,1.659413e+00,59388
ECAL0:5-0-1,Odd,3.373832e+02,3.090313e+00,56587
ECAL0:5-0-0,Even,3.336379e+02,1.794076e+00,59388
ECAL0:5-0-1,Even,3.408788e+02,2.992914e+00,56587
ECAL0:5-1-0,Odd,3.374848e+02,9.237629e-01,53071
ECAL0:5-1-1,Odd,3.416270e+02,9.464701e-01,47026
ECAL0:5-1-0,Even,3.430718e+02,8.398792e-01,53071
ECAL0:5-1-1,Even,3.402854e+02,7.614860e-01,47026
ECAL0:5-2-0,Odd,3.476473e+02,1.413829e+00,58036
ECAL0:5-2-1,Odd,3.324784e+02,1.164141e+00,58379
ECAL0:5-2-0,Even,3.572180e+02,1.413277e+00,58036
ECAL0:5-2-1,Even,3.322101e+02,7.462340e+01,58379
ECAL0:5-3-0,Odd,3.363555e+02,1.080996e+00,58371
ECAL0:5-3-1,Odd,3.458716e+02,9.807251e-01,59089
ECAL0:5-3-0,Even,3.436255e+02,9.827286e-01,58371
ECAL0:5-3-1,Even,3.342820e+02,1.090199e+00,59089
ECAL0:5-4-0,Odd,3.043929e+02,8.222592e-01,52360
ECAL0:5-4-1,Odd,3.510604e+02,8.656444e-01,58131
ECAL0:5-4-0,Even,3.137902e+02,9.936646e-01,52360
ECAL0:5-4-1,Even,3.503966e+02,1.091594e+00,58131
ECAL0:5-5-0,Odd,3.485444e+02,1.821880e+00,52932
ECAL0:5-5-1,Odd,3.365936e+02,2.003883e+02,59554
ECAL0:5-5-0,Even,3.574273e+02,1.860367e+00,52932
ECAL0:5-5-1,Even,3.487735e+02,4.570420e+00,59554
ECALSUM:0-0--,Odd,3.797771e+02,2.731229e+00,61711
ECALSUM:1-0--,Odd,3.774680e+02,6.694723e+00,61710
ECALSUM:0-0--,Even,3.797701e+02,2.996569e+00,61711
ECALSUM:1-0--,Even,3.680267e+02,5.496814e+00,61710
HCAL0:0-0--,Odd,4.424442e+02,1.250229e+00,49242
HCAL0:0-0--,Even,4.849586e+02,1.326863e+00,49242
HCAL0:0-1--,Odd,3.714585e+02,9.817344e+00,58089
HCAL0:0-1--,Even,4.070576e+02,3.106879e+00,58089
HCAL0:0-2--,Odd,3.591847e+02,3.929629e+00,59203
HCAL0:0-2--,Even,3.958224e+02,3.269730e+00,59203
HCAL0:1-0--,Odd,3.486262e+02,2.456297e+00,57547
HCAL0:1-0--,Even,3.916266e+02,2.463403e+00,57547
HCAL0:1-1--,Odd,3.411624e+02,2.056583e+00,60299
HCAL0:1-1--,Even,3.867346e+02,4.871580e+00,60299
HCAL0:1-2--,Odd,3.657228e+02,5.106781e+00,55555
HCAL0:1-2--,Even,4.047302e+02,4.874593e+00,55555
HCAL0:2-1--,Odd,4.046192e+02,2.456096e+00,53762
HCAL0:2-1--,Even,3.714905e+02,3.283918e+00,53762
HCAL0:2-2--,Odd,4.085708e+02,2.824891e+00,60308
HCAL0:2-2--,Even,3.701820e+02,2.053726e+00,60308
HCAL0:2-0--,Odd,3.609325e+02,1.644709e+00,48841
HCAL0:2-0--,Even,3.990541e+02,1.710860e+00,48841
HCAL1:1-0--,Odd,4.032491e+02,2.068745e+00,42258
HCAL1:1-0--,Even,3.888834e+02,2.171133e+00,42258
HCAL1:1-2--,Odd,3.967855e+02,1.840627e+02,32485
HCAL1:1-2--,Even,3.793147e+02,1.875076e+02,32485
HCAL1:1-1--,Odd,4.023638e+02,1.786884e+00,32998
HCAL1:1-1--,Even,3.928670e+02,1.860330e+00,32998
HCAL1:2-0--,Odd,4.021834e+02,2.275294e+00,37115
HCAL1:2-0--,Even,3.837861e+02,2.178309e+00,37115
HCAL1:2-1--,Odd,4.075596e+02,2.171063e+00,40351
HCAL1:2-1--,Even,3.951633e+02,1.972246e+00,40351
HCAL1:2-2--,Odd,3.487153e+02,1.710181e+00,35649
HCAL1:2-2--,Even,3.908777e+02,1.712625e+00,35649
HCAL1:0-1--,Odd,3.804755e+02,1.231038e+00,37299
HCAL1:0-1--,Even,3.650355e+02,1.714077e+00,37299
HCAL1:0-2--,Odd,4.037103e+02,1.524813e+00,35664
HCAL1:0-2--,Even,3.900485e+02,1.708371e+00,35664
HCAL1:0-0--,Odd,3.987358e+02,1.574393e+00,36932
HCAL1:0-0--,Even,3.829324e+02,1.634072e+00,36932
HCAL2:0-0--,Odd,3.108195e+02,8.402027e-01,33224
HCAL2:0-0--,Even,3.438387e+02,1.019070e+00,33224
HCAL2:0-1--,Odd,3.522796e+02,9.754205e-01,38159
HCAL2:0-1--,Even,3.701362e+02,3.396238e+00,38159
HCAL2:0-2--,Odd,3.307218e+02,1.578998e+00,36026
HCAL2:0-2--,Even,3.609175e+02,1.638109e+00,36026
HCAL2:1-0--,Odd,3.438760e+02,9.662196e-01,42714
HCAL2:1-0--,Even,3.597515e+02,9.605062e-01,42714
HCAL2:1-1--,Odd,3.085682e+02,9.894294e-01,29801
HCAL2:1-1--,Even,3.362184e+02,1.051961e+00,29801
HCAL2:1-2--,Odd,3.476589e+02,9.633258e-01,36326
HCAL2:1-2--,Even,3.675626e+02,9.268606e-01,36326
HCAL2:2-2--,Odd,3.556082e+02,9.772658e-01,35832
HCAL2:2-2--,Even,3.597970e+02,1.052468e+00,35832
HCAL2:2-0--,Odd,3.342514e+02,1.115264e+00,48156
HCAL2:2-0--,Even,3.557966e+02,1.024622e+00,48156
HCAL2:2-1--,Odd,3.272543e+02,1.117841e+00,47566
HCAL2:2-1--,Even,3.368498e+02,1.109839e+00,47566
HCAL3:1-0--,Odd,3.724295e+02,1.574296e+00,54647
HCAL3:1-0--,Even,3.550389e+02,1.874159e+00,54647
HCAL3:1-1--,Odd,3.518105e+02,5.095134e+00,61704
HCAL3:1-1--,Even,3.423104e+02,5.086226e+00,61704
HCAL3:1-2--,Odd,3.518555e+02,1.723610e+00,61256
HCAL3:1-2--,Even,3.337880e+02,1.677317e+00,61256
HCAL3:2-0--,Odd,3.599447e+02,1.212740e+00,59495
HCAL3:2-0--,Even,3.359538e+02,1.215041e+00,59495
HCAL3:2-1--,Odd,3.434333e+02,1.869753e+00,59498
HCAL3:2-1--,Even,3.341616e+02,1.343730e+00,59498
HCAL3:2-2--,Odd,3.180780e+02,1.215039e+00,58260
HCAL3:2-2--,Even,3.828244e+02,1.325820e+00,58260
HCAL3:0-1--,Odd,3.640299e+02,1.704209e+02,56796
HCAL3:0-1--,Even,3.430727e+02,1.136190e+00,56796
HCAL3:0-2--,Odd,3.652295e+02,1.413544e+00,56242
HCAL3:0-2--,Even,3.540416e+02,1.453252e+00,56242
HCAL3:0-0--,Odd,3.730076e+02,1.289938e+00,57467
HCAL3:0-0--,Even,3.613500e+02,1.324614e+00,57467
VETO:0-0--,Odd,3.954012e+02,9.698226e+00,61413
VETO:1-0--,Odd,3.963670e+02,5.115488e+00,60614
VETO:2-0--,Odd,4.033076e+02,5.128401e+00,59547
VETO:3-0--,Odd,3.998372e+02,5.113276e+00,60955
VETO:4-0--,Odd,3.864525e+02,3.082707e+00,60694
VETO:5-0--,Odd,3.961453e+02,4.841853e+00,60063
VETO:0-0--,Even,3.308740e+02,1.005770e+01,61413
VETO:1-0--,Even,3.398649e+02,5.095631e+00,60614
VETO:2-0--,Even,3.320965e+02,4.549995e+00,59547
VETO:3-0--,Even,3.448526e+02,5.096458e+00,60955
VETO:4-0--,Even,3.237974e+02,4.065636e+00,60694
VETO:5-0--,Even,3.398051e+02,5.138514e+00,60063
SRD:0-0--,Odd,3.580683e+02,3.310497e+00,61615
SRD:1-0--,Odd,3.633367e+02,5.101639e+00,60847
SRD:2-0--,Odd,3.458442e+02,5.094491e+00,59895
SRD:0-0--,Even,3.526746e+02,5.184946e+00,61615
SRD:1-0--,Even,3.638197e+02,5.116055e+00,60847
SRD:2-0--,Even,3.808337e+02,5.099612e+00,59895
S2:0-0--,Odd,3.178903e+02,9.404757e+00,61711
S2:0-0--,Even,3.125196e+02,9.441207e+00,61711
S3:0-0--,Odd,3.603119e+02,5.140455e+00,61711
S3:0-0--,Even,3.548001e+02,5.119405e+00,61711
S4:0-0--,Odd,3.625810e+02,4.848716e+00,61711
S4:0-0--,Even,3.446824e+02,2.745753e+00,61711
V1:0-0--,Odd,3.573606e+02,5.076560e+00,61711
V1:0-0--,Even,3.422010e+02,1.950872e+02,61711
V2:0-0--,Odd,3.809925e+02,1.176288e+00,59163
V2:0-0--,Even,3.268025e+02,5.142877e+00,59163
T2:0-0--,Odd,3.469163e+02,3.428412e+00,61711
T2:0-0--,Even,3.906319e+02,4.867278e+00,61711
HOD0X1-0-29,Odd,1.057075e+02,1.346658e+00,35609
HOD0X1-1-29,Odd,1.058967e+02,9.850568e-01,20558
HOD0X1-3-29,Odd,1.098210e+02,3.254775e+00,20310
HOD0X1-4-29,Odd,1.031537e+02,4.242439e+00,21617
HOD0X1-5-29,Odd,1.173952e+02,2.786970e+00,19486
HOD0X1-6-29,Odd,1.144664e+02,8.341453e-01,21801
HOD0X1-7-29,Odd,1.178230e+02,5.519768e+00,31016
HOD0X1-8-29,Odd,5.799347e+01,3.529819e-01,22256
HOD0X1-9-29,Odd,6.680453e+01,2.939289e+00,25885
HOD0X1-10-29,Odd,5.634723e+01,2.624152e+00,24595
HOD0X1-11-29,Odd,4.596991e+01,4.094137e+00,28021
HOD0X1-12-29,Odd,4.949156e+01,1.313520e+00,25162
HOD0X1-13-29,Odd,6.890430e+01,1.161110e+02,27112
HOD0X1-14-29,Odd,6.285875e+01,1.228115e+00,28505
HOD0Y1-0-30,Odd,9.487871e+01,1.271243e+00,37078
HOD0Y1-1-30,Odd,1.139876e+02,8.913762e-01,26871
HOD0Y1-2-30,Odd,8.421282e+01,1.414240e+00,27123
HOD0Y1-3-30,Odd,9.648487e+01,1.176629e+00,21970
HOD0Y1-4-30,Odd,9.887869e+01,2.475006e+00,27021
HOD0Y1-5-30,Odd,1.002536e+02,1.080841e+00,22874
HOD0Y1-6-30,Odd,1.157994e+02,4.491262e+01,30512
HOD0Y1-7-30,Odd,8.279670e+01,4.354228e+00,34653
HOD0Y1-8-30,Odd,1.222574e+02,7.846260e-01,34176
HOD0Y1-9-30,Odd,1.283899e+02,4.117319e+00,36310
HOD0Y1-10-30,Odd,1.124743e+02,3.418808e+00,45124
HOD0Y1-11-30,Odd,1.283422e+02,1.075766e+00,41210
HOD0Y1-12-30,Odd,1.125656e+02,2.941038e+00,29118
HOD0Y1-13-30,Odd,1.299854e+02,3.911595e+00,26716
HOD0Y1-14-30,Odd,1.211568e+02,1.268680e+00,28249
HOD0X1-0-29,Even,7.418448e+01,1.796542e+00,35609
HOD0X1-1-29,Even,7.473437e+01,1.575621e+00,20558
HOD0X1-3-29,Even,8.076554e+01,3.160030e+00,20310
HOD0X1-4-29,Even,5.809633e+01,1.015169e+00,21617
HOD0X1-5-29,Even,8.188528e+01,6.754460e-01,19486
HOD0X1-6-29,Even,7.474879e+01,5.142706e+00,21801
HOD0X1-7-29,Even,7.983612e+01,5.596897e+00,31016
HOD0X1-8-29,Even,6.436671e+01,2.578058e+00,22256
HOD0X1-9-29,Even,6.620031e+01,9.406923e-01,25885
HOD0X1-10-29,Even,5.960486e+01,1.872588e+00,24595
HOD0X1-11-29,Even,5.114010e+01,3.414482e+00,28021
HOD0X1-12-29,Even,4.187679e+01,1.142469e+00,25162
HOD0X1-13-29,Even,7.343589e+01,1.148376e+00,27112
HOD0X1-14-29,Even,5.968205e+01,2.049346e+00,28505
HOD0Y1-0-30,Even,6.167056e+01,1.129500e+00,37078
HOD0Y1-1-30,Even,7.937860e+01,1.211594e+00,26871
HOD0Y1-2-30,Even,5.614065e+01,9.466663e-01,27123
HOD0Y1-3-30,Even,7.839777e+01,1.686613e+00,21970
HOD0Y1-4-30,Even,6.400526e+01,2.208087e+00,27021
HOD0Y1-5-30,Even,7.611779e+01,2.456309e+00,22874
HOD0Y1-6-30,Even,7.912180e+01,2.470218e+00,30512
HOD0Y1-7-30,Even,7.077367e+01,4.066990e+00,34653
HOD0Y1-8-30,Even,8.112486e+01,5.935372e+00,34176
HOD0Y1-9-30,Even,8.038862e+01,4.117428e+00,36310
HOD0Y1-10-30,Even,6.014940e+01,3.428148e+00,45124
HOD0Y1-11-30,Even,9.167315e+01,1.183237e+00,41210
HOD0Y1-12-30,Even,6.494820e+01,1.025441e+00,29118
HOD0Y1-13-30,Even,8.368837e+01,1.013689e+00,26716
HOD0Y1-14-30,Even,6.843864e+01,1.641985e+00,28249
HOD1X1-0-29,Odd,7.724018e+01,1.706092e+00,39852
HOD1X1-1-29,Odd,6.311508e+01,2.788266e+00,32156
HOD1X1-2-29,Odd,5.861721e+01,6.401031e+00,30821
HOD1X1-3-29,Odd,3.983718e+01,8.311420e-01,30411
HOD1X1-4-29,Odd,7.908686e+01,2.169311e+00,24759
HOD1X1-5-29,Odd,7.149244e+01,3.243100e+00,23236
HOD1X1-6-29,Odd,7.643373e+01,1.245765e+01,21912
HOD1X1-7-29,Odd,7.074581e+01,4.137151e+00,30485
HOD1X1-8-29,Odd,1.251581e+02,3.597381e+00,22210
HOD1X1-9-29,Odd,1.087709e+02,3.788714e+00,17371
HOD1X1-10-29,Odd,1.045674e+02,1.641954e+00,23649
HOD1X1-11-29,Odd,1.030892e+02,1.726579e+00,21153
HOD1X1-12-29,Odd,1.222142e+02,1.727429e+00,13027
HOD1X1-13-29,Odd,1.244470e+02,7.984778e-01,15117
HOD1X1-14-29,Odd,1.190895e+02,1.802569e+00,27487
HOD1Y1-0-30,Odd,5.986617e+01,1.082832e+02,39370
HOD1Y1-1-30,Odd,3.546062e+01,1.782805e+00,25622
HOD1Y1-2-30,Odd,6.812267e+01,1.052232e+00,22280
HOD1Y1-3-30,Odd,4.888637e+01,2.199239e+00,26097
HOD1Y1-4-30,Odd,4.309110e+01,1.794109e+00,25047
HOD1Y1-5-30,Odd,3.814886e+01,8.218831e+01,28844
HOD1Y1-6-30,Odd,3.560190e+01,8.619179e-01,34478
HOD1Y1-7-30,Odd,4.621079e+01,8.161193e+00,42674
HOD1Y1-8-30,Odd,1.334779e+02,1.604826e+02,39622
HOD1Y1-9-30,Odd,1.171241e+02,4.285763e+00,30176
HOD1Y1-10-30,Odd,1.229591e+02,1.014176e+00,29436
HOD1Y1-11-30,Odd,1.392993e+02,1.121274e+00,27525
HOD1Y1-12-30,Odd,1.331101e+02,2.324759e+00,18368
HOD1Y1-13-30,Odd,1.192197e+02,1.412482e+00,17810
HOD1Y1-14-30,Odd,1.291496e+02,1.379251e+00,19735
HOD1X1-0-29,Even,5.853254e+01,1.224894e+00,39852
HOD1X1-1-29,Even,4.812328e+01,7.923590e-01,32156
HOD1X1-2-29,Even,4.143215e+01,8.972940e-01,30821
HOD1X1-3-29,Even,3.769190e+01,2.925150e+00,30411
HOD1X1-4-29,Even,5.970313e+01,2.789789e+00,24759
HOD1X1-5-29,Even,5.781809e+01,3.243134e+00,23236
HOD1X1-6-29,Even,6.423834e+01,5.161004e+00,21912
HOD1X1-7-29,Even,6.673089e+01,1.050137e+00,30485
HOD1X1-8-29,Even,1.323805e+02,3.920125e+00,22210
HOD1X1-9-29,Even,1.168594e+02,8.689859e-01,17371
HOD1X1-10-29,Even,9.892412e+01,1.516781e+00,23649
HOD1X1-11-29,Even,1.210784e+02,8.756171e-01,21153
HOD1X1-12-29,Even,1.284851e+02,6.825751e-01,13027
HOD1X1-13-29,Even,1.362892e+02,7.761390e-01,15117
HOD1X1-14-29,Even,1.257721e+02,2.187911e+00,27487
HOD1Y1-0-30,Even,6.129904e+01,1.555816e+00,39370
HOD1Y1-1-30,Even,3.888540e+01,1.852334e+00,25622
HOD1Y1-2-30,Even,6.216236e+01,1.212115e+00,22280
HOD1Y1-3-30,Even,6.054678e+01,1.798594e+00,26097
HOD1Y1-4-30,Even,4.054994e+01,1.021090e+00,25047
HOD1Y1-5-30,Even,5.038395e+01,3.869018e+00,28844
HOD1Y1-6-30,Even,3.572172e+01,1.712476e+00,34478
HOD1Y1-7-30,Even,4.197170e+01,7.155094e-01,42674
HOD1Y1-8-30,Even,1.161638e+02,3.426817e+00,39622
HOD1Y1-9-30,Even,1.065267e+02,6.107876e+00,30176
HOD1Y1-10-30,Even,1.111303e+02,3.412935e+00,29436
HOD1Y1-11-30,Even,1.350380e+02,9.876107e-01,27525
HOD1Y1-12-30,Even,1.128861e+02,1.964953e+00,18368
HOD1Y1-13-30,Even,1.008064e+02,3.264427e+00,17810
HOD1Y1-14-30,Even,1.136008e+02,1.473034e+02,19735
MUON0:0-0--,Odd,4.036289e+02,1.021415e+00,23637
MUON0:0-0--,Even,3.598640e+02,7.407770e-01,23637
MUON1:0-0--,Odd,3.559546e+02,8.338426e-01,10630
MUON1:0-0--,Even,3.959283e+02,1.829223e+02,10630
MUON3:0-0--,Odd,3.400320e+02,7.157538e-01,11767
MUON3:0-0--,Even,4.070396e+02,7.409246e-01,11767
MUON2:0-0--,Odd,3.352366e+02,1.914654e+02,5808
MUON2:0-0--,Even,3.379554e+02,8.338169e-01,5808
