1   0   0   0   363.883   1.13876
1   0   1   0   355.293   1.52347
1   0   2   0   339.434   1.431
1   0   3   0   350.165   7.01996
1   0   4   0   353.261   1.21527
1   0   5   0   346.417   0.793501
1   1   0   0   333.126   0.676288
1   1   1   0   342.579   0.822608
1   1   2   0   342.758   2.94823
1   1   3   0   343.464   8.45335
1   1   4   0   334.519   0.978714
1   1   5   0   332.66   0.725084
1   2   0   0   337.297   0.70463
1   2   1   0   329.42   1.03819
1   2   2   0   325.495   1.36862
1   2   3   0   332.024   19.4774
1   2   4   0   349.952   1.57001
1   2   5   0   354.465   0.642814
1   3   0   0   354.649   0.662049
1   3   1   0   353.629   0.774093
1   3   2   0   339.407   0.877225
1   3   3   0   349.342   0.99024
1   3   4   0   341.542   0.833579
1   3   5   0   337.409   0.661571
1   4   0   0   337.398   0.784399
1   4   1   0   337.817   0.801679
1   4   2   0   351.942   0.660119
1   4   3   0   339.842   0.772391
1   4   4   0   360.667   0.724831
1   4   5   0   349.931   0.656719
1   5   0   0   370.477   0.854127
1   5   1   0   343.886   0.74683
1   5   2   0   358.97   0.64383
1   5   3   0   348.572   0.780961
1   5   4   0   345.971   0.772146
1   5   5   0   365.323   0.761052
1   0   0   1   371.561   0.918241
1   0   1   1   316.815   1.7649
1   0   2   1   337.032   1.59902
1   0   3   1   323.882   7.71959
1   0   4   1   336.299   1.31641
1   0   5   1   354.66   0.569895
1   1   0   1   320.214   0.565243
1   1   1   1   367.827   1.01845
1   1   2   1   375.04   2.50375
1   1   3   1   363.323   10.0515
1   1   4   1   364.739   2.11145
1   1   5   1   330.221   0.693486
1   2   0   1   328.453   0.587552
1   2   1   1   351.234   0.901628
1   2   2   1   374.827   4.98449
1   2   3   1   359.503   17.104
1   2   4   1   372.919   4.46078
1   2   5   1   327.462   0.715081
1   3   0   1   332.754   0.636626
1   3   1   1   333.53   0.73066
1   3   2   1   332.391   1.37479
1   3   3   1   342.855   3.34437
1   3   4   1   309.492   1.22326
1   3   5   1   328.083   0.550202
1   4   0   1   346.711   0.557873
1   4   1   1   328.162   0.559611
1   4   2   1   342.466   0.607001
1   4   3   1   310.109   0.638404
1   4   4   1   327.38   0.666295
1   4   5   1   348.82   0.552307
1   5   0   1   361.99   0.614193
1   5   1   1   339.095   0.532329
1   5   2   1   334.68   0.600574
1   5   3   1   335.564   0.576875
1   5   4   1   333.994   0.590619
1   5   5   1   375.564   0.6081
0   0   0   0   380   1.10402
0   0   1   0   355.457   1.32973
0   0   2   0   342.383   1.37605
0   0   3   0   355.865   6.65848
0   0   4   0   353.14   0.979461
0   0   5   0   361.333   0.777926
0   1   0   0   336.454   0.68461
0   1   1   0   394.423   0.772694
0   1   2   0   383.817   2.44935
0   1   3   0   398.443   7.59671
0   1   4   0   381.229   0.958346
0   1   5   0   330.047   0.706702
0   2   0   0   339.043   0.706273
0   2   1   0   379.659   0.997699
0   2   2   0   369.947   1.13504
0   2   3   0   377.455   15.4222
0   2   4   0   392.824   1.36463
0   2   5   0   346.432   0.631637
0   3   0   0   348.281   0.653193
0   3   1   0   340.543   0.774343
0   3   2   0   330.157   0.845556
0   3   3   0   336.151   0.943608
0   3   4   0   316.399   0.825706
0   3   5   0   326.859   0.654398
0   4   0   0   334.961   0.791526
0   4   1   0   326.491   0.800869
0   4   2   0   326.228   0.671299
0   4   3   0   330.861   0.773747
0   4   4   0   351.692   0.717802
0   4   5   0   333.619   0.672129
0   5   0   0   384.783   0.863314
0   5   1   0   339.186   0.741062
0   5   2   0   350.631   0.649903
0   5   3   0   342.214   0.768638
0   5   4   0   338.324   0.772041
0   5   5   0   380.061   0.751308
0   0   0   1   381.487   0.778931
0   0   1   1   328.373   1.19868
0   0   2   1   344.951   1.69107
0   0   3   1   338.338   6.83314
0   0   4   1   345.263   1.16771
0   0   5   1   372.208   0.537856
0   1   0   1   335.086   0.544922
0   1   1   1   325.337   0.979934
0   1   2   1   336.221   4.45712
0   1   3   1   323.277   10.7608
0   1   4   1   319.12   2.19455
0   1   5   1   334.883   0.658546
0   2   0   1   343.229   0.562135
0   2   1   1   303.248   0.895064
0   2   2   1   333.694   4.77586
0   2   3   1   319.684   18.9294
0   2   4   1   339.49   4.2032
0   2   5   1   339.44   0.689924
0   3   0   1   334.458   0.642818
0   3   1   1   374.174   0.702498
0   3   2   1   378.848   1.31115
0   3   3   1   378.375   3.17574
0   3   4   1   364.151   1.14763
0   3   5   1   328.745   0.56555
0   4   0   1   339.301   0.560849
0   4   1   1   378.095   0.52798
0   4   2   1   393.357   0.587443
0   4   3   1   357.161   0.62921
0   4   4   1   375.109   0.623158
0   4   5   1   341.702   0.56799
0   5   0   1   380.143   0.60798
0   5   1   1   339.87   0.5376
0   5   2   1   334.819   0.568148
0   5   3   1   346.924   0.538253
0   5   4   1   334.144   0.597171
0   5   5   1   388.121   0.5421
